launch_status failed=0 1560855092000000000
launch_status broken=1 1560855092000000000
launch_status passed=21 1560855092000000000
launch_status skipped=0 1560855092000000000
launch_status unknown=0 1560855092000000000
launch_time duration=1279581630 1560855092000000000
launch_time min_duration=0 1560855092000000000
launch_time max_duration=22638 1560855092000000000
launch_time sum_duration=93709 1560855092000000000
launch_problems test_defects=1 1560855092000000000
launch_retries retries=6 1560855092000000000
launch_retries run=22 1560855092000000000
