{
  "cb96b5915ab79f855ec38fdd76045812" : {
    "statistic" : {
      "failed" : 0,
      "broken" : 0,
      "skipped" : 0,
      "passed" : 1,
      "unknown" : 0,
      "total" : 1
    },
    "items" : [ {
      "uid" : "e29d53e96a8f502",
      "status" : "passed",
      "time" : {
        "start" : 1559231406782,
        "stop" : 1559231406997,
        "duration" : 215
      }
    } ]
  },
  "abe5bc2bb1b7ac518206f5c8c3b69072" : {
    "statistic" : {
      "failed" : 0,
      "broken" : 0,
      "skipped" : 0,
      "passed" : 1,
      "unknown" : 0,
      "total" : 1
    },
    "items" : [ {
      "uid" : "236e0b5b5db2bc26",
      "status" : "passed",
      "time" : {
        "start" : 1559231406365,
        "stop" : 1559231406762,
        "duration" : 397
      }
    } ]
  },
  "978854553e2d9dd01225bc64e510b775" : {
    "statistic" : {
      "failed" : 0,
      "broken" : 0,
      "skipped" : 0,
      "passed" : 1,
      "unknown" : 0,
      "total" : 1
    },
    "items" : [ {
      "uid" : "e7acc19ac784e357",
      "status" : "passed",
      "time" : {
        "start" : 1558708513398,
        "stop" : 1558708513443,
        "duration" : 45
      }
    } ]
  },
  "084eee69f1c1e420416e80f3ad1391bc" : {
    "statistic" : {
      "failed" : 0,
      "broken" : 0,
      "skipped" : 0,
      "passed" : 1,
      "unknown" : 0,
      "total" : 1
    },
    "items" : [ {
      "uid" : "b492bbf7165fefe1",
      "status" : "passed",
      "time" : {
        "start" : 1559231407002,
        "stop" : 1559231407200,
        "duration" : 198
      }
    } ]
  },
  "19d3592755f695d7a66f3e9c275515f6" : {
    "statistic" : {
      "failed" : 0,
      "broken" : 0,
      "skipped" : 0,
      "passed" : 1,
      "unknown" : 0,
      "total" : 1
    },
    "items" : [ {
      "uid" : "79084a857deff721",
      "status" : "passed",
      "time" : {
        "start" : 1559231407205,
        "stop" : 1559231407206,
        "duration" : 1
      }
    } ]
  },
  "80034d5d4e40aaf8b761927045afc3eb" : {
    "statistic" : {
      "failed" : 0,
      "broken" : 0,
      "skipped" : 0,
      "passed" : 1,
      "unknown" : 0,
      "total" : 1
    },
    "items" : [ {
      "uid" : "89995ba8690988e3",
      "status" : "passed",
      "time" : {
        "start" : 1559231402945,
        "stop" : 1559231406354,
        "duration" : 3409
      }
    } ]
  },
  "c7b9491dcc89658a1664fe7783140f2d" : {
    "statistic" : {
      "failed" : 0,
      "broken" : 0,
      "skipped" : 0,
      "passed" : 1,
      "unknown" : 0,
      "total" : 1
    },
    "items" : [ {
      "uid" : "e53897c8717ea608",
      "status" : "passed",
      "time" : {
        "start" : 1559231407211,
        "stop" : 1559231408694,
        "duration" : 1483
      }
    } ]
  }
}