{
  "uid" : "b1a8273437954620fa374b796ffaacdd",
  "name" : "behaviors",
  "children" : [ {
    "name" : "test_main",
    "uid" : "e7acc19ac784e357",
    "parentUid" : "b1a8273437954620fa374b796ffaacdd",
    "status" : "passed",
    "time" : {
      "start" : 1558708513398,
      "stop" : 1558708513443,
      "duration" : 45
    },
    "flaky" : false,
    "parameters" : [ ]
  }, {
    "name" : "test_robot1_positive_case",
    "uid" : "89995ba8690988e3",
    "parentUid" : "b1a8273437954620fa374b796ffaacdd",
    "status" : "passed",
    "time" : {
      "start" : 1559231402945,
      "stop" : 1559231406354,
      "duration" : 3409
    },
    "flaky" : false,
    "parameters" : [ ]
  }, {
    "name" : "test_robot1_negative_case",
    "uid" : "236e0b5b5db2bc26",
    "parentUid" : "b1a8273437954620fa374b796ffaacdd",
    "status" : "passed",
    "time" : {
      "start" : 1559231406365,
      "stop" : 1559231406762,
      "duration" : 397
    },
    "flaky" : false,
    "parameters" : [ ]
  }, {
    "name" : "test_functional",
    "uid" : "e29d53e96a8f502",
    "parentUid" : "b1a8273437954620fa374b796ffaacdd",
    "status" : "passed",
    "time" : {
      "start" : 1559231406782,
      "stop" : 1559231406997,
      "duration" : 215
    },
    "flaky" : false,
    "parameters" : [ ]
  }, {
    "name" : "test_main",
    "uid" : "b492bbf7165fefe1",
    "parentUid" : "b1a8273437954620fa374b796ffaacdd",
    "status" : "passed",
    "time" : {
      "start" : 1559231407002,
      "stop" : 1559231407200,
      "duration" : 198
    },
    "flaky" : false,
    "parameters" : [ ]
  }, {
    "name" : "test_function_cycle",
    "uid" : "79084a857deff721",
    "parentUid" : "b1a8273437954620fa374b796ffaacdd",
    "status" : "passed",
    "time" : {
      "start" : 1559231407205,
      "stop" : 1559231407206,
      "duration" : 1
    },
    "flaky" : false,
    "parameters" : [ ]
  }, {
    "name" : "test_powershell",
    "uid" : "e53897c8717ea608",
    "parentUid" : "b1a8273437954620fa374b796ffaacdd",
    "status" : "passed",
    "time" : {
      "start" : 1559231407211,
      "stop" : 1559231408694,
      "duration" : 1483
    },
    "flaky" : false,
    "parameters" : [ ]
  } ]
}