{
  "uid" : "83edc06c07f9ae9e47eb6dd1b683e4e2",
  "name" : "packages",
  "children" : [ {
    "name" : "test_compareCMD ",
    "children" : [ {
      "name" : "test_main",
      "uid" : "e7acc19ac784e357",
      "parentUid" : "edda7be67193f0d968b55fa13b9af7e6",
      "status" : "passed",
      "time" : {
        "start" : 1558708513398,
        "stop" : 1558708513443,
        "duration" : 45
      },
      "flaky" : false,
      "parameters" : [ ]
    } ],
    "uid" : "edda7be67193f0d968b55fa13b9af7e6"
  }, {
    "name" : "test_API",
    "children" : [ {
      "name" : "test_robot1_positive_case",
      "uid" : "89995ba8690988e3",
      "parentUid" : "bf8525433e2f01e0f5c927e669056c82",
      "status" : "passed",
      "time" : {
        "start" : 1559231402945,
        "stop" : 1559231406354,
        "duration" : 3409
      },
      "flaky" : false,
      "parameters" : [ ]
    }, {
      "name" : "test_robot1_negative_case",
      "uid" : "236e0b5b5db2bc26",
      "parentUid" : "bf8525433e2f01e0f5c927e669056c82",
      "status" : "passed",
      "time" : {
        "start" : 1559231406365,
        "stop" : 1559231406762,
        "duration" : 397
      },
      "flaky" : false,
      "parameters" : [ ]
    } ],
    "uid" : "bf8525433e2f01e0f5c927e669056c82"
  }, {
    "name" : "test_compare",
    "children" : [ {
      "name" : "test_functional",
      "uid" : "e29d53e96a8f502",
      "parentUid" : "e118a7af7a6dc312e7c33acd2156e8ce",
      "status" : "passed",
      "time" : {
        "start" : 1559231406782,
        "stop" : 1559231406997,
        "duration" : 215
      },
      "flaky" : false,
      "parameters" : [ ]
    } ],
    "uid" : "e118a7af7a6dc312e7c33acd2156e8ce"
  }, {
    "name" : "test_compareCMD",
    "children" : [ {
      "name" : "test_main",
      "uid" : "b492bbf7165fefe1",
      "parentUid" : "5ed2df2f86e67eec57faec85d070319f",
      "status" : "passed",
      "time" : {
        "start" : 1559231407002,
        "stop" : 1559231407200,
        "duration" : 198
      },
      "flaky" : false,
      "parameters" : [ ]
    } ],
    "uid" : "5ed2df2f86e67eec57faec85d070319f"
  }, {
    "name" : "test_compareCycle",
    "children" : [ {
      "name" : "test_function_cycle",
      "uid" : "79084a857deff721",
      "parentUid" : "4313d35b09acd4e419e3684f560adba2",
      "status" : "passed",
      "time" : {
        "start" : 1559231407205,
        "stop" : 1559231407206,
        "duration" : 1
      },
      "flaky" : false,
      "parameters" : [ ]
    } ],
    "uid" : "4313d35b09acd4e419e3684f560adba2"
  }, {
    "name" : "test_comparePS",
    "children" : [ {
      "name" : "test_powershell",
      "uid" : "e53897c8717ea608",
      "parentUid" : "e9b19bc62814408c2ce8b9132957ece2",
      "status" : "passed",
      "time" : {
        "start" : 1559231407211,
        "stop" : 1559231408694,
        "duration" : 1483
      },
      "flaky" : false,
      "parameters" : [ ]
    } ],
    "uid" : "e9b19bc62814408c2ce8b9132957ece2"
  } ]
}