"Status","Name","Duration in ms","Description"
"passed","test_compareCycle#test_function_cycle","1",""
"passed","test_API#test_robot1_negative_case","397",""
"passed","test_compare#test_functional","215",""
"passed","test_comparePS#test_powershell","1483",""
"passed","test_compareCMD#test_main","198",""
"passed","test_API#test_robot1_positive_case","3409",""
"passed","test_compareCMD #test_main","45",""
