[ {
  "uid" : "e83dabbc4d820efc",
  "name" : "test_02",
  "time" : {
    "start" : 1560855009028,
    "stop" : 1560855023426,
    "duration" : 14398
  },
  "status" : "passed",
  "severity" : "normal"
}, {
  "uid" : "ac1af69b669a328a",
  "name" : "test_function_cycle",
  "time" : {
    "start" : 1560854999740,
    "stop" : 1560854999744,
    "duration" : 4
  },
  "status" : "passed",
  "severity" : "normal"
}, {
  "uid" : "aaceb3a78f1eff69",
  "name" : "test_main",
  "time" : {
    "start" : 1560854999521,
    "stop" : 1560854999730,
    "duration" : 209
  },
  "status" : "passed",
  "severity" : "normal"
}, {
  "uid" : "e73b52d4847c8c0b",
  "name" : "test_functional",
  "time" : {
    "start" : 1559575461829,
    "stop" : 1559575461864,
    "duration" : 35
  },
  "status" : "passed",
  "severity" : "normal"
}, {
  "uid" : "37c028a782d16f17",
  "name" : "test_01",
  "time" : {
    "start" : 1559575461948,
    "stop" : 1559575471800,
    "duration" : 9852
  },
  "status" : "passed",
  "severity" : "normal"
}, {
  "uid" : "bcba022b62570a4",
  "name" : "test_robot1_positive_case",
  "time" : {
    "start" : 1560854998566,
    "stop" : 1560854999005,
    "duration" : 439
  },
  "status" : "passed",
  "severity" : "normal"
}, {
  "uid" : "9c7dbb832de36f3d",
  "name" : "test_write_convert_kilometers_to_miles_function",
  "time" : {
    "start" : 1560855000817,
    "stop" : 1560855000817,
    "duration" : 0
  },
  "status" : "broken",
  "severity" : "normal"
}, {
  "uid" : "6c1127abfc24ac93",
  "name" : "test_01",
  "time" : {
    "start" : 1560855000837,
    "stop" : 1560855009028,
    "duration" : 8191
  },
  "status" : "passed",
  "severity" : "normal"
}, {
  "uid" : "56c79176ef2a80df",
  "name" : "test_selene",
  "time" : {
    "start" : 1560855036350,
    "stop" : 1560855041684,
    "duration" : 5334
  },
  "status" : "passed",
  "severity" : "normal"
}, {
  "uid" : "79013d63e4208848",
  "name" : "test_robot1_negative_case",
  "time" : {
    "start" : 1560854999005,
    "stop" : 1560854999283,
    "duration" : 278
  },
  "status" : "passed",
  "severity" : "normal"
}, {
  "uid" : "887aa59c4013ab1f",
  "name" : "test_functional",
  "time" : {
    "start" : 1560854999305,
    "stop" : 1560854999506,
    "duration" : 201
  },
  "status" : "passed",
  "severity" : "normal"
}, {
  "uid" : "9fc1911bc1512afa",
  "name" : "test_robot1_positive_case",
  "time" : {
    "start" : 1559575461131,
    "stop" : 1559575461492,
    "duration" : 361
  },
  "status" : "passed",
  "severity" : "normal"
}, {
  "uid" : "1ceb54aee4af8ab8",
  "name" : "test_02",
  "time" : {
    "start" : 1559575471811,
    "stop" : 1559575494449,
    "duration" : 22638
  },
  "status" : "passed",
  "severity" : "normal"
}, {
  "uid" : "b65ce3df82350389",
  "name" : "test_powershell",
  "time" : {
    "start" : 1560854999755,
    "stop" : 1560855000810,
    "duration" : 1055
  },
  "status" : "passed",
  "severity" : "normal"
}, {
  "uid" : "4f9f8c387695c1bc",
  "name" : "test_powershell",
  "time" : {
    "start" : 1559575461912,
    "stop" : 1559575461941,
    "duration" : 29
  },
  "status" : "passed",
  "severity" : "normal"
}, {
  "uid" : "119927c23308b8f6",
  "name" : "test_selector",
  "time" : {
    "start" : 1560855041697,
    "stop" : 1560855042761,
    "duration" : 1064
  },
  "status" : "passed",
  "severity" : "normal"
}, {
  "uid" : "7be3679d2e4812ab",
  "name" : "test_google_search",
  "time" : {
    "start" : 1560855031730,
    "stop" : 1560855036338,
    "duration" : 4608
  },
  "status" : "passed",
  "severity" : "normal"
}, {
  "uid" : "5a4bae68de56536b",
  "name" : "test_03",
  "time" : {
    "start" : 1560855023426,
    "stop" : 1560855031709,
    "duration" : 8283
  },
  "status" : "passed",
  "severity" : "normal"
}, {
  "uid" : "8a726b61681f2812",
  "name" : "test_function_cycle",
  "time" : {
    "start" : 1559575461905,
    "stop" : 1559575461906,
    "duration" : 1
  },
  "status" : "passed",
  "severity" : "normal"
}, {
  "uid" : "6184342f186d09d0",
  "name" : "test_03",
  "time" : {
    "start" : 1559575494461,
    "stop" : 1559575510852,
    "duration" : 16391
  },
  "status" : "passed",
  "severity" : "normal"
}, {
  "uid" : "bd5da8a1879679ec",
  "name" : "test_main",
  "time" : {
    "start" : 1559575461870,
    "stop" : 1559575461900,
    "duration" : 30
  },
  "status" : "passed",
  "severity" : "normal"
}, {
  "uid" : "4bb417006c514d9",
  "name" : "test_robot1_negative_case",
  "time" : {
    "start" : 1559575461513,
    "stop" : 1559575461821,
    "duration" : 308
  },
  "status" : "passed",
  "severity" : "normal"
} ]