{
  "reportName" : "Allure Report",
  "testRuns" : [ ],
  "statistic" : {
    "failed" : 0,
    "broken" : 1,
    "skipped" : 0,
    "passed" : 21,
    "unknown" : 0,
    "total" : 22
  },
  "time" : {
    "start" : 1559575461131,
    "stop" : 1560855042761,
    "duration" : 1279581630,
    "minDuration" : 0,
    "maxDuration" : 22638,
    "sumDuration" : 93709
  }
}