{
  "uid" : "83edc06c07f9ae9e47eb6dd1b683e4e2",
  "name" : "packages",
  "children" : [ {
    "name" : "Program Files (x86).Jenkins.workspace.Compare.Compare",
    "children" : [ {
      "name" : "test_API",
      "children" : [ {
        "name" : "test_robot1_positive_case",
        "uid" : "9fc1911bc1512afa",
        "parentUid" : "16da0dd88d02cad8dd28df653dfe5860",
        "status" : "passed",
        "time" : {
          "start" : 1559575461131,
          "stop" : 1559575461492,
          "duration" : 361
        },
        "flaky" : false,
        "parameters" : [ ]
      }, {
        "name" : "test_robot1_negative_case",
        "uid" : "4bb417006c514d9",
        "parentUid" : "16da0dd88d02cad8dd28df653dfe5860",
        "status" : "passed",
        "time" : {
          "start" : 1559575461513,
          "stop" : 1559575461821,
          "duration" : 308
        },
        "flaky" : false,
        "parameters" : [ ]
      } ],
      "uid" : "16da0dd88d02cad8dd28df653dfe5860"
    }, {
      "name" : "test_compare",
      "children" : [ {
        "name" : "test_functional",
        "uid" : "e73b52d4847c8c0b",
        "parentUid" : "9d8292409d07910592303cae22a63cd9",
        "status" : "passed",
        "time" : {
          "start" : 1559575461829,
          "stop" : 1559575461864,
          "duration" : 35
        },
        "flaky" : false,
        "parameters" : [ ]
      } ],
      "uid" : "9d8292409d07910592303cae22a63cd9"
    }, {
      "name" : "test_compareCMD",
      "children" : [ {
        "name" : "test_main",
        "uid" : "bd5da8a1879679ec",
        "parentUid" : "d4c2725d29dc74d0b653de942635595d",
        "status" : "passed",
        "time" : {
          "start" : 1559575461870,
          "stop" : 1559575461900,
          "duration" : 30
        },
        "flaky" : false,
        "parameters" : [ ]
      } ],
      "uid" : "d4c2725d29dc74d0b653de942635595d"
    }, {
      "name" : "test_compareCycle",
      "children" : [ {
        "name" : "test_function_cycle",
        "uid" : "8a726b61681f2812",
        "parentUid" : "6b6f4aaaa68ff1db5612af055977314e",
        "status" : "passed",
        "time" : {
          "start" : 1559575461905,
          "stop" : 1559575461906,
          "duration" : 1
        },
        "flaky" : false,
        "parameters" : [ ]
      } ],
      "uid" : "6b6f4aaaa68ff1db5612af055977314e"
    }, {
      "name" : "test_comparePS",
      "children" : [ {
        "name" : "test_powershell",
        "uid" : "4f9f8c387695c1bc",
        "parentUid" : "2ba6b4270fda04cd00fa61caeed56168",
        "status" : "passed",
        "time" : {
          "start" : 1559575461912,
          "stop" : 1559575461941,
          "duration" : 29
        },
        "flaky" : false,
        "parameters" : [ ]
      } ],
      "uid" : "2ba6b4270fda04cd00fa61caeed56168"
    }, {
      "name" : "test_webDriver",
      "children" : [ {
        "name" : "test_01",
        "uid" : "37c028a782d16f17",
        "parentUid" : "ea9bc8d4570fc0629e9f451c4c7dce27",
        "status" : "passed",
        "time" : {
          "start" : 1559575461948,
          "stop" : 1559575471800,
          "duration" : 9852
        },
        "flaky" : false,
        "parameters" : [ ]
      }, {
        "name" : "test_02",
        "uid" : "1ceb54aee4af8ab8",
        "parentUid" : "ea9bc8d4570fc0629e9f451c4c7dce27",
        "status" : "passed",
        "time" : {
          "start" : 1559575471811,
          "stop" : 1559575494449,
          "duration" : 22638
        },
        "flaky" : false,
        "parameters" : [ ]
      }, {
        "name" : "test_03",
        "uid" : "6184342f186d09d0",
        "parentUid" : "ea9bc8d4570fc0629e9f451c4c7dce27",
        "status" : "passed",
        "time" : {
          "start" : 1559575494461,
          "stop" : 1559575510852,
          "duration" : 16391
        },
        "flaky" : false,
        "parameters" : [ ]
      } ],
      "uid" : "ea9bc8d4570fc0629e9f451c4c7dce27"
    } ],
    "uid" : "Program Files (x86).Jenkins.workspace.Compare.Compare"
  }, {
    "name" : "API.test_API",
    "children" : [ {
      "name" : "test_robot1_positive_case",
      "uid" : "bcba022b62570a4",
      "parentUid" : "936addf4a010813fa1e2665a3d8b5eac",
      "status" : "passed",
      "time" : {
        "start" : 1560854998566,
        "stop" : 1560854999005,
        "duration" : 439
      },
      "flaky" : false,
      "parameters" : [ ]
    }, {
      "name" : "test_robot1_negative_case",
      "uid" : "79013d63e4208848",
      "parentUid" : "936addf4a010813fa1e2665a3d8b5eac",
      "status" : "passed",
      "time" : {
        "start" : 1560854999005,
        "stop" : 1560854999283,
        "duration" : 278
      },
      "flaky" : false,
      "parameters" : [ ]
    } ],
    "uid" : "API.test_API"
  }, {
    "name" : "Compare",
    "children" : [ {
      "name" : "test_compare",
      "children" : [ {
        "name" : "test_functional",
        "uid" : "887aa59c4013ab1f",
        "parentUid" : "7a3a4a0fe583f735a67bb8473b7c1e02",
        "status" : "passed",
        "time" : {
          "start" : 1560854999305,
          "stop" : 1560854999506,
          "duration" : 201
        },
        "flaky" : false,
        "parameters" : [ ]
      } ],
      "uid" : "7a3a4a0fe583f735a67bb8473b7c1e02"
    }, {
      "name" : "test_compareCMD",
      "children" : [ {
        "name" : "test_main",
        "uid" : "aaceb3a78f1eff69",
        "parentUid" : "76e994df29544e0c2e8eab35795959b1",
        "status" : "passed",
        "time" : {
          "start" : 1560854999521,
          "stop" : 1560854999730,
          "duration" : 209
        },
        "flaky" : false,
        "parameters" : [ ]
      } ],
      "uid" : "76e994df29544e0c2e8eab35795959b1"
    }, {
      "name" : "test_compareCycle",
      "children" : [ {
        "name" : "test_function_cycle",
        "uid" : "ac1af69b669a328a",
        "parentUid" : "c03b71263592ed0a7619627a0412302b",
        "status" : "passed",
        "time" : {
          "start" : 1560854999740,
          "stop" : 1560854999744,
          "duration" : 4
        },
        "flaky" : false,
        "parameters" : [ ]
      } ],
      "uid" : "c03b71263592ed0a7619627a0412302b"
    }, {
      "name" : "test_comparePS",
      "children" : [ {
        "name" : "test_powershell",
        "uid" : "b65ce3df82350389",
        "parentUid" : "2486f6c8414acc0a6e0e4838d859de1d",
        "status" : "passed",
        "time" : {
          "start" : 1560854999755,
          "stop" : 1560855000810,
          "duration" : 1055
        },
        "flaky" : false,
        "parameters" : [ ]
      } ],
      "uid" : "2486f6c8414acc0a6e0e4838d859de1d"
    }, {
      "name" : "test_training",
      "children" : [ {
        "name" : "test_write_convert_kilometers_to_miles_function",
        "uid" : "9c7dbb832de36f3d",
        "parentUid" : "60610e1174a2e25cfc2146958b98d2f5",
        "status" : "broken",
        "time" : {
          "start" : 1560855000817,
          "stop" : 1560855000817,
          "duration" : 0
        },
        "flaky" : false,
        "parameters" : [ ]
      } ],
      "uid" : "60610e1174a2e25cfc2146958b98d2f5"
    } ],
    "uid" : "b7ad2d385b9f403aee05071a9cbcca09"
  }, {
    "name" : "Web_UI",
    "children" : [ {
      "name" : "test_webDriver",
      "children" : [ {
        "name" : "test_01",
        "uid" : "6c1127abfc24ac93",
        "parentUid" : "9b026a0620ad5698453c5602fce8774d",
        "status" : "passed",
        "time" : {
          "start" : 1560855000837,
          "stop" : 1560855009028,
          "duration" : 8191
        },
        "flaky" : false,
        "parameters" : [ ]
      }, {
        "name" : "test_02",
        "uid" : "e83dabbc4d820efc",
        "parentUid" : "9b026a0620ad5698453c5602fce8774d",
        "status" : "passed",
        "time" : {
          "start" : 1560855009028,
          "stop" : 1560855023426,
          "duration" : 14398
        },
        "flaky" : false,
        "parameters" : [ ]
      }, {
        "name" : "test_03",
        "uid" : "5a4bae68de56536b",
        "parentUid" : "9b026a0620ad5698453c5602fce8774d",
        "status" : "passed",
        "time" : {
          "start" : 1560855023426,
          "stop" : 1560855031709,
          "duration" : 8283
        },
        "flaky" : false,
        "parameters" : [ ]
      } ],
      "uid" : "9b026a0620ad5698453c5602fce8774d"
    }, {
      "name" : "Web_selene",
      "children" : [ {
        "name" : "test_GoogleSelene",
        "children" : [ {
          "name" : "test_google_search",
          "uid" : "7be3679d2e4812ab",
          "parentUid" : "a6225ca9e207fad1a10bb18558809d50",
          "status" : "passed",
          "time" : {
            "start" : 1560855031730,
            "stop" : 1560855036338,
            "duration" : 4608
          },
          "flaky" : false,
          "parameters" : [ ]
        } ],
        "uid" : "a6225ca9e207fad1a10bb18558809d50"
      }, {
        "name" : "test_UIselene",
        "children" : [ {
          "name" : "test_selene",
          "uid" : "56c79176ef2a80df",
          "parentUid" : "37cc7969561e2310cab04472fd475cf0",
          "status" : "passed",
          "time" : {
            "start" : 1560855036350,
            "stop" : 1560855041684,
            "duration" : 5334
          },
          "flaky" : false,
          "parameters" : [ ]
        } ],
        "uid" : "37cc7969561e2310cab04472fd475cf0"
      }, {
        "name" : "test_selectors",
        "children" : [ {
          "name" : "test_selector",
          "uid" : "119927c23308b8f6",
          "parentUid" : "ec9438571865edddfad7a88efbda70f2",
          "status" : "passed",
          "time" : {
            "start" : 1560855041697,
            "stop" : 1560855042761,
            "duration" : 1064
          },
          "flaky" : false,
          "parameters" : [ ]
        } ],
        "uid" : "ec9438571865edddfad7a88efbda70f2"
      } ],
      "uid" : "3f2f7a762ff5792615c449599080e1b3"
    } ],
    "uid" : "ab9762913eefcbeaad676dfc9e9caf6c"
  } ]
}