{
  "uid" : "98d3104e051c652961429bf95fa0b5d6",
  "name" : "suites",
  "children" : [ {
    "name" : "Program Files (x86).Jenkins.workspace.Compare.Compare",
    "children" : [ {
      "name" : "test_API",
      "children" : [ {
        "name" : "test_robot1_positive_case",
        "uid" : "9fc1911bc1512afa",
        "parentUid" : "4534277a2e907fca41964ac94eb1a8ab",
        "status" : "passed",
        "time" : {
          "start" : 1559575461131,
          "stop" : 1559575461492,
          "duration" : 361
        },
        "flaky" : false,
        "parameters" : [ ]
      }, {
        "name" : "test_robot1_negative_case",
        "uid" : "4bb417006c514d9",
        "parentUid" : "4534277a2e907fca41964ac94eb1a8ab",
        "status" : "passed",
        "time" : {
          "start" : 1559575461513,
          "stop" : 1559575461821,
          "duration" : 308
        },
        "flaky" : false,
        "parameters" : [ ]
      } ],
      "uid" : "4534277a2e907fca41964ac94eb1a8ab"
    }, {
      "name" : "test_compare",
      "children" : [ {
        "name" : "test_functional",
        "uid" : "e73b52d4847c8c0b",
        "parentUid" : "58cfc765cce24b3b79a7502692095c5f",
        "status" : "passed",
        "time" : {
          "start" : 1559575461829,
          "stop" : 1559575461864,
          "duration" : 35
        },
        "flaky" : false,
        "parameters" : [ ]
      } ],
      "uid" : "58cfc765cce24b3b79a7502692095c5f"
    }, {
      "name" : "test_compareCMD",
      "children" : [ {
        "name" : "test_main",
        "uid" : "bd5da8a1879679ec",
        "parentUid" : "56d52d60ec081550139fe9bb01f85d57",
        "status" : "passed",
        "time" : {
          "start" : 1559575461870,
          "stop" : 1559575461900,
          "duration" : 30
        },
        "flaky" : false,
        "parameters" : [ ]
      } ],
      "uid" : "56d52d60ec081550139fe9bb01f85d57"
    }, {
      "name" : "test_compareCycle",
      "children" : [ {
        "name" : "test_function_cycle",
        "uid" : "8a726b61681f2812",
        "parentUid" : "facd5e060ba6162905c5a03f2e4ef130",
        "status" : "passed",
        "time" : {
          "start" : 1559575461905,
          "stop" : 1559575461906,
          "duration" : 1
        },
        "flaky" : false,
        "parameters" : [ ]
      } ],
      "uid" : "facd5e060ba6162905c5a03f2e4ef130"
    }, {
      "name" : "test_comparePS",
      "children" : [ {
        "name" : "test_powershell",
        "uid" : "4f9f8c387695c1bc",
        "parentUid" : "b1af2d57ebd885b8078fa21d933181b2",
        "status" : "passed",
        "time" : {
          "start" : 1559575461912,
          "stop" : 1559575461941,
          "duration" : 29
        },
        "flaky" : false,
        "parameters" : [ ]
      } ],
      "uid" : "b1af2d57ebd885b8078fa21d933181b2"
    }, {
      "name" : "test_webDriver",
      "children" : [ {
        "name" : "WebDriver",
        "children" : [ {
          "name" : "test_01",
          "uid" : "37c028a782d16f17",
          "parentUid" : "57f1519e0bb621538d8d0b97f39f94d9",
          "status" : "passed",
          "time" : {
            "start" : 1559575461948,
            "stop" : 1559575471800,
            "duration" : 9852
          },
          "flaky" : false,
          "parameters" : [ ]
        } ],
        "uid" : "57f1519e0bb621538d8d0b97f39f94d9"
      }, {
        "name" : "GuruDriver",
        "children" : [ {
          "name" : "test_02",
          "uid" : "1ceb54aee4af8ab8",
          "parentUid" : "7d36d1feb9ea132b9d2dc3a7fa506e8f",
          "status" : "passed",
          "time" : {
            "start" : 1559575471811,
            "stop" : 1559575494449,
            "duration" : 22638
          },
          "flaky" : false,
          "parameters" : [ ]
        } ],
        "uid" : "7d36d1feb9ea132b9d2dc3a7fa506e8f"
      }, {
        "name" : "Translation",
        "children" : [ {
          "name" : "test_03",
          "uid" : "6184342f186d09d0",
          "parentUid" : "05250235c5654b702f2a45b937c0ce9b",
          "status" : "passed",
          "time" : {
            "start" : 1559575494461,
            "stop" : 1559575510852,
            "duration" : 16391
          },
          "flaky" : false,
          "parameters" : [ ]
        } ],
        "uid" : "05250235c5654b702f2a45b937c0ce9b"
      } ],
      "uid" : "faed87ec7f3b262cc6f6fcbd8fe0d5ac"
    } ],
    "uid" : "0be9bd5c6c62cec958ae5c5c5ca0ba79"
  }, {
    "name" : "API",
    "children" : [ {
      "name" : "test_API",
      "children" : [ {
        "name" : "test_robot1_positive_case",
        "uid" : "bcba022b62570a4",
        "parentUid" : "c666c0a959d4705a8d300a835107b1cf",
        "status" : "passed",
        "time" : {
          "start" : 1560854998566,
          "stop" : 1560854999005,
          "duration" : 439
        },
        "flaky" : false,
        "parameters" : [ ]
      }, {
        "name" : "test_robot1_negative_case",
        "uid" : "79013d63e4208848",
        "parentUid" : "c666c0a959d4705a8d300a835107b1cf",
        "status" : "passed",
        "time" : {
          "start" : 1560854999005,
          "stop" : 1560854999283,
          "duration" : 278
        },
        "flaky" : false,
        "parameters" : [ ]
      } ],
      "uid" : "c666c0a959d4705a8d300a835107b1cf"
    } ],
    "uid" : "14fa7b099890ed134a386db0936127bb"
  }, {
    "name" : "Compare",
    "children" : [ {
      "name" : "test_compare",
      "children" : [ {
        "name" : "test_functional",
        "uid" : "887aa59c4013ab1f",
        "parentUid" : "86bbf48faf0ab871c5162ba6a19b78b6",
        "status" : "passed",
        "time" : {
          "start" : 1560854999305,
          "stop" : 1560854999506,
          "duration" : 201
        },
        "flaky" : false,
        "parameters" : [ ]
      } ],
      "uid" : "86bbf48faf0ab871c5162ba6a19b78b6"
    }, {
      "name" : "test_compareCMD",
      "children" : [ {
        "name" : "test_main",
        "uid" : "aaceb3a78f1eff69",
        "parentUid" : "c69f44fb5d7ae017cb9621b66a698c4b",
        "status" : "passed",
        "time" : {
          "start" : 1560854999521,
          "stop" : 1560854999730,
          "duration" : 209
        },
        "flaky" : false,
        "parameters" : [ ]
      } ],
      "uid" : "c69f44fb5d7ae017cb9621b66a698c4b"
    }, {
      "name" : "test_compareCycle",
      "children" : [ {
        "name" : "test_function_cycle",
        "uid" : "ac1af69b669a328a",
        "parentUid" : "087219ded119ef14ee7a923e2a6c88ed",
        "status" : "passed",
        "time" : {
          "start" : 1560854999740,
          "stop" : 1560854999744,
          "duration" : 4
        },
        "flaky" : false,
        "parameters" : [ ]
      } ],
      "uid" : "087219ded119ef14ee7a923e2a6c88ed"
    }, {
      "name" : "test_comparePS",
      "children" : [ {
        "name" : "test_powershell",
        "uid" : "b65ce3df82350389",
        "parentUid" : "167c0b00b301e5f9598b84efeeca3dde",
        "status" : "passed",
        "time" : {
          "start" : 1560854999755,
          "stop" : 1560855000810,
          "duration" : 1055
        },
        "flaky" : false,
        "parameters" : [ ]
      } ],
      "uid" : "167c0b00b301e5f9598b84efeeca3dde"
    }, {
      "name" : "test_training",
      "children" : [ {
        "name" : "test_write_convert_kilometers_to_miles_function",
        "uid" : "9c7dbb832de36f3d",
        "parentUid" : "a21e78c862c0a8331dc79be8539397bb",
        "status" : "broken",
        "time" : {
          "start" : 1560855000817,
          "stop" : 1560855000817,
          "duration" : 0
        },
        "flaky" : false,
        "parameters" : [ ]
      } ],
      "uid" : "a21e78c862c0a8331dc79be8539397bb"
    } ],
    "uid" : "7efa8422127aa8d526e299aac877ce35"
  }, {
    "name" : "Web_UI",
    "children" : [ {
      "name" : "test_webDriver",
      "children" : [ {
        "name" : "WebDriver",
        "children" : [ {
          "name" : "test_01",
          "uid" : "6c1127abfc24ac93",
          "parentUid" : "10123ab73a72015ef5a171eff06542c5",
          "status" : "passed",
          "time" : {
            "start" : 1560855000837,
            "stop" : 1560855009028,
            "duration" : 8191
          },
          "flaky" : false,
          "parameters" : [ ]
        } ],
        "uid" : "10123ab73a72015ef5a171eff06542c5"
      }, {
        "name" : "GuruDriver",
        "children" : [ {
          "name" : "test_02",
          "uid" : "e83dabbc4d820efc",
          "parentUid" : "a05c72366fee486c08bb14aefd4d2bff",
          "status" : "passed",
          "time" : {
            "start" : 1560855009028,
            "stop" : 1560855023426,
            "duration" : 14398
          },
          "flaky" : false,
          "parameters" : [ ]
        } ],
        "uid" : "a05c72366fee486c08bb14aefd4d2bff"
      }, {
        "name" : "Translation",
        "children" : [ {
          "name" : "test_03",
          "uid" : "5a4bae68de56536b",
          "parentUid" : "5a2dd6eafc2f07afad89ce7be04f2c80",
          "status" : "passed",
          "time" : {
            "start" : 1560855023426,
            "stop" : 1560855031709,
            "duration" : 8283
          },
          "flaky" : false,
          "parameters" : [ ]
        } ],
        "uid" : "5a2dd6eafc2f07afad89ce7be04f2c80"
      } ],
      "uid" : "b21469aea44bc5fd19bda266e0685dd4"
    } ],
    "uid" : "286978daf286b31c8653a52f28821953"
  }, {
    "name" : "Web_UI.Web_selene",
    "children" : [ {
      "name" : "test_GoogleSelene",
      "children" : [ {
        "name" : "test_google_search",
        "uid" : "7be3679d2e4812ab",
        "parentUid" : "7fae86ee0c0bf4d00e090c4732d6398d",
        "status" : "passed",
        "time" : {
          "start" : 1560855031730,
          "stop" : 1560855036338,
          "duration" : 4608
        },
        "flaky" : false,
        "parameters" : [ ]
      } ],
      "uid" : "7fae86ee0c0bf4d00e090c4732d6398d"
    }, {
      "name" : "test_UIselene",
      "children" : [ {
        "name" : "test_selene",
        "uid" : "56c79176ef2a80df",
        "parentUid" : "8e2cd1200ad7084a1bb28a8e841c4653",
        "status" : "passed",
        "time" : {
          "start" : 1560855036350,
          "stop" : 1560855041684,
          "duration" : 5334
        },
        "flaky" : false,
        "parameters" : [ ]
      } ],
      "uid" : "8e2cd1200ad7084a1bb28a8e841c4653"
    }, {
      "name" : "test_selectors",
      "children" : [ {
        "name" : "TestTodoMVC",
        "children" : [ {
          "name" : "test_selector",
          "uid" : "119927c23308b8f6",
          "parentUid" : "f793c3bde414f1bf9740f2cec321fad6",
          "status" : "passed",
          "time" : {
            "start" : 1560855041697,
            "stop" : 1560855042761,
            "duration" : 1064
          },
          "flaky" : false,
          "parameters" : [ ]
        } ],
        "uid" : "f793c3bde414f1bf9740f2cec321fad6"
      } ],
      "uid" : "217b32763346658471fc5e2f8a7ad2bb"
    } ],
    "uid" : "da11cb20b3e9f1fa94742e4d82a36867"
  } ]
}